D:\Projects\multimodule\beansweb\web\src\main\java\com\beans\app\controller\auth\LoginController.java
D:\Projects\multimodule\beansweb\web\src\main\java\com\beans\app\model\JwtRequest.java
D:\Projects\multimodule\beansweb\web\src\main\java\com\beans\app\controller\user\UserController.java
D:\Projects\multimodule\beansweb\web\src\main\java\com\beans\app\model\UserDTO.java
D:\Projects\multimodule\beansweb\web\src\main\java\com\beans\app\controller\book\BookController.java
D:\Projects\multimodule\beansweb\web\src\main\java\com\beans\app\config\WebSecurityConfig.java
D:\Projects\multimodule\beansweb\web\src\main\java\com\beans\app\controller\doctor\DoctorController.java
D:\Projects\multimodule\beansweb\web\src\main\java\com\beans\app\service\JwtUserDetailsService.java
D:\Projects\multimodule\beansweb\web\src\main\java\com\beans\app\config\JwtAuthenticationEntryPoint.java
D:\Projects\multimodule\beansweb\web\src\main\java\com\beans\app\config\JwtTokenUtil.java
D:\Projects\multimodule\beansweb\web\src\main\java\com\beans\app\controller\publisher\PublisherController.java
D:\Projects\multimodule\beansweb\web\src\main\java\com\beans\app\WebApplication.java
D:\Projects\multimodule\beansweb\web\src\main\java\com\beans\app\model\JwtResponse.java
D:\Projects\multimodule\beansweb\web\src\main\java\com\beans\app\controller\author\AuthorController.java
D:\Projects\multimodule\beansweb\web\src\main\java\com\beans\app\config\JwtRequestFilter.java
