D:\Projects\multimodule\beansweb\service\src\main\java\com\beans\model\publisher\Publisher.java
D:\Projects\multimodule\beansweb\service\src\main\java\com\beans\service\book\BookService.java
D:\Projects\multimodule\beansweb\service\src\main\java\com\beans\service\publisher\PublisherService.java
D:\Projects\multimodule\beansweb\service\src\main\java\com\beans\repository\base\BaseRepositoryFactoryBean.java
D:\Projects\multimodule\beansweb\service\target\generated-sources\java\com\beans\model\publisher\QPublisher.java
D:\Projects\multimodule\beansweb\service\src\main\java\com\beans\model\user\UserSession.java
D:\Projects\multimodule\beansweb\service\src\main\java\com\beans\repository\base\BaseRepository.java
D:\Projects\multimodule\beansweb\service\src\main\java\com\beans\service\book\BookServiceImpl.java
D:\Projects\multimodule\beansweb\service\src\main\java\com\beans\model\book\Book.java
D:\Projects\multimodule\beansweb\service\src\main\java\com\beans\repository\book\BookRepository.java
D:\Projects\multimodule\beansweb\service\src\main\java\com\beans\service\author\AuthorServiceImpl.java
D:\Projects\multimodule\beansweb\service\src\main\java\com\beans\model\book\BookDto.java
D:\Projects\multimodule\beansweb\service\src\main\java\com\beans\repository\doctor\DoctorRepository.java
D:\Projects\multimodule\beansweb\service\src\main\java\com\beans\model\base\query\QueryOperator.java
D:\Projects\multimodule\beansweb\service\src\main\java\com\beans\model\base\query\QueryResult.java
D:\Projects\multimodule\beansweb\service\src\main\java\com\beans\service\base\BaseService.java
D:\Projects\multimodule\beansweb\service\src\main\java\com\beans\service\doctor\DoctorServiceImpl.java
D:\Projects\multimodule\beansweb\service\src\main\java\com\beans\service\base\BaseServiceImpl.java
D:\Projects\multimodule\beansweb\service\src\main\java\com\beans\model\publisher\PublisherDto.java
D:\Projects\multimodule\beansweb\service\src\main\java\com\beans\repository\user\PasswordHistoryRepository.java
D:\Projects\multimodule\beansweb\service\src\main\java\com\beans\repository\publisher\PublisherRepository.java
D:\Projects\multimodule\beansweb\service\target\generated-sources\java\com\beans\model\author\QAuthor.java
D:\Projects\multimodule\beansweb\service\target\generated-sources\java\com\beans\model\doctor\QDoctor.java
D:\Projects\multimodule\beansweb\service\src\main\java\com\beans\model\base\query\SortOrder.java
D:\Projects\multimodule\beansweb\service\src\main\java\com\beans\service\user\PasswordHistoryServiceImpl.java
D:\Projects\multimodule\beansweb\service\target\generated-sources\java\com\beans\model\book\QBook.java
D:\Projects\multimodule\beansweb\service\src\main\java\com\beans\model\base\query\QueryParameter.java
D:\Projects\multimodule\beansweb\service\src\main\java\com\beans\service\author\AuthorService.java
D:\Projects\multimodule\beansweb\service\target\generated-sources\java\com\beans\model\user\QPasswordHistory.java
D:\Projects\multimodule\beansweb\service\src\main\java\com\beans\model\user\User.java
D:\Projects\multimodule\beansweb\service\src\main\java\com\beans\repository\user\UserRepository.java
D:\Projects\multimodule\beansweb\service\target\generated-sources\java\com\beans\model\user\QUser.java
D:\Projects\multimodule\beansweb\service\src\main\java\com\beans\repository\base\BaseRepositoryImpl.java
D:\Projects\multimodule\beansweb\service\src\main\java\com\beans\service\user\UserServiceImpl.java
D:\Projects\multimodule\beansweb\service\src\main\java\com\beans\service\doctor\DoctorService.java
D:\Projects\multimodule\beansweb\service\target\generated-sources\java\com\beans\model\base\QBaseModel.java
D:\Projects\multimodule\beansweb\service\src\main\java\com\beans\model\doctor\Doctor.java
D:\Projects\multimodule\beansweb\service\src\main\java\com\beans\model\author\AuthorDto.java
D:\Projects\multimodule\beansweb\service\src\main\java\com\beans\model\user\PasswordHistory.java
D:\Projects\multimodule\beansweb\service\src\main\java\com\beans\service\publisher\PublisherServiceImpl.java
D:\Projects\multimodule\beansweb\service\src\main\java\com\beans\repository\author\AuthorRepository.java
D:\Projects\multimodule\beansweb\service\src\main\java\com\beans\service\user\PasswordHistoryService.java
D:\Projects\multimodule\beansweb\service\src\main\java\com\beans\model\base\BaseModel.java
D:\Projects\multimodule\beansweb\service\src\main\java\com\beans\service\user\UserService.java
D:\Projects\multimodule\beansweb\service\src\main\java\com\beans\model\author\Author.java
D:\Projects\multimodule\beansweb\service\src\main\java\com\beans\service\seeder\DbSeeder.java
